﻿I;MÉDECINE INTERNE;234/52544;54324/5424;internal.medicine@stluke.org;20;3;2;1;0
M;MATERNITÉ;234/52544;54324/5424;maternity@stluke.org;20;3;2;1;0
N;NURSERY;234/52544;54324/5424;nursery@stluke.org;20;3;2;1;0
S;CHIRURGIE;234/52544;54324/5424;surgery@stluke.org;20;3;2;1;0
